asynchronous_master_spi/trunk/spi.vcd
$date
	Fri May 24 19:04:06 2019
$end
$version
	Icarus Verilog
$end
$timescale
	1ps
$end
$scope module simulate $end
$var wire 8 ! data [7:0] $end
$var wire 1 " rd $end
$var wire 1 # rst $end
$var wire 1 $ wr $end
$var wire 1 % ss $end
$var wire 1 & senderr $end
$var wire 1 ' sck $end
$var wire 1 ( mosi $end
$var wire 1 ) charreceived $end
$var wire 1 * buffempty $end
$var reg 8 + _datarec [7:0] $end
$var reg 8 , _datasend [7:0] $end
$var reg 1 " _rd $end
$var reg 1 - _rst $end
$var reg 1 . _wr $end
$var reg 3 / clk [2:0] $end
$var reg 1 0 clk_in $end
$var reg 1 1 clk_out $end
$var reg 1 2 miso $end
$var reg 1 3 res_senderr $end
$scope module spi0 $end
$var wire 1 * buffempty $end
$var wire 1 ) charreceived $end
$var wire 1 4 clk $end
$var wire 8 5 data [7:0] $end
$var wire 1 6 lsbfirst $end
$var wire 1 2 miso $end
$var wire 2 7 mode [1:0] $end
$var wire 3 8 prescaller [2:0] $end
$var wire 1 " rd $end
$var wire 1 3 res_senderr $end
$var wire 1 # rst $end
$var wire 1 $ wr $end
$var wire 1 ' sck $end
$var wire 1 ( mosi $end
$var reg 1 9 _mosi $end
$var reg 1 : charreceivedn $end
$var reg 1 ; charreceivedp $end
$var reg 1 < inbufffulln $end
$var reg 1 = inbufffullp $end
$var reg 8 > input_buffer [7:0] $end
$var reg 1 ? lsbfirstint $end
$var reg 2 @ modeint [1:0] $end
$var reg 8 A output_buffer [7:0] $end
$var reg 8 B prescaller_cnt [7:0] $end
$var reg 3 C prescallerbuff [2:0] $end
$var reg 3 D prescallerint [2:0] $end
$var reg 8 E prescdemux [7:0] $end
$var reg 5 F sckint [4:0] $end
$var reg 1 & senderr $end
$var reg 8 G shift_reg_in [7:0] $end
$var reg 8 H shift_reg_out [7:0] $end
$var reg 1 % ss $end
$var reg 1 I state $end
$upscope $end
$upscope $end
$enddefinitions $end
#0
$dumpvars
0I
b0 H
b0 G
b0 F
b1 E
b0 D
b0 C
b0 B
b0 A
b0 @
0?
bx >
0=
0<
0;
0:
19
b0 8
b1 7
06
bx 5
04
03
02
01
00
b0 /
0.
1-
bx ,
bx +
1*
0)
1(
0'
0&
1%
0$
1#
0"
bx !
$end
#1000
b1 /
10
#2000
00
0#
0-
#3000
b10 /
10
#4000
00
b1010101 !
b1010101 5
b1010101 ,
12
#5000
0*
b11 /
1=
b1010101 >
10
1$
1.
#6000
00
0$
0.
#7000
b10101010 !
b10101010 5
b10101010 ,
1*
1I
b1010101 H
b1 @
0%
1<
14
b100 /
10
#8000
0*
0=
b10101010 >
1$
1.
00
#9000
b101 /
0$
0.
10
#10000
00
#11000
b110 /
10
#12000
00
#13000
b111 /
10
#14000
00
#15000
04
b0 /
10
#16000
00
#17000
b1 /
10
#18000
00
#19000
b10 /
1&
10
1$
1.
b1010101 !
b1010101 5
b1010101 ,
#20000
0&
00
13
0$
0.
#21000
b11 /
10
03
#22000
00
#23000
b1 B
14
b100 /
10
#24000
00
#25000
b101 /
10
#26000
00
#27000
b110 /
10
#28000
00
#29000
b111 /
10
#30000
00
#31000
04
b0 /
10
#32000
00
#33000
b1 /
10
#34000
00
#35000
b10 /
10
#36000
00
#37000
b11 /
10
#38000
00
#39000
1'
0(
09
b1 F
b0 B
14
b100 /
10
#40000
00
#41000
b101 /
10
#42000
00
#43000
b110 /
10
#44000
00
#45000
b111 /
10
#46000
00
#47000
04
b0 /
10
#48000
00
#49000
b1 /
10
#50000
00
#51000
b10 /
10
#52000
00
#53000
b11 /
10
#54000
00
#55000
b1 B
14
b100 /
10
#56000
00
#57000
b101 /
10
#58000
00
#59000
b110 /
10
#60000
00
#61000
b111 /
10
#62000
00
#63000
04
b0 /
10
#64000
00
#65000
b1 /
10
#66000
00
#67000
b10 /
10
#68000
00
#69000
b11 /
10
#70000
00
#71000
0'
b10101011 H
b10000000 G
b10 F
b0 B
14
b100 /
10
#72000
00
#73000
b101 /
10
#74000
00
#75000
b110 /
10
#76000
00
#77000
b111 /
10
#78000
00
#79000
04
b0 /
10
#80000
00
#81000
b1 /
10
#82000
00
#83000
b10 /
10
#84000
00
#85000
b11 /
10
#86000
00
#87000
b1 B
14
b100 /
10
#88000
00
#89000
b101 /
10
#90000
00
#91000
b110 /
10
#92000
00
#93000
b111 /
10
#94000
00
#95000
04
b0 /
10
#96000
00
#97000
b1 /
10
#98000
00
#99000
b10 /
10
#100000
00
#101000
b11 /
10
#102000
00
#103000
1'
1(
19
b11 F
b0 B
14
b100 /
10
#104000
00
#105000
b101 /
10
#106000
00
#107000
b110 /
10
#108000
00
#109000
b111 /
10
#110000
00
#111000
04
b0 /
10
#112000
00
#113000
b1 /
10
#114000
00
#115000
b10 /
10
#116000
00
#117000
b11 /
10
#118000
00
#119000
b1 B
14
b100 /
10
#120000
00
#121000
b101 /
10
#122000
00
#123000
b110 /
10
#124000
00
#125000
b111 /
10
#126000
00
#127000
04
b0 /
10
#128000
00
#129000
b1 /
10
#130000
00
#131000
b10 /
10
#132000
00
#133000
b11 /
10
#134000
00
#135000
0'
b1010111 H
b11000000 G
b100 F
b0 B
14
b100 /
10
#136000
00
#137000
b101 /
10
#138000
00
#139000
b110 /
10
#140000
00
#141000
b111 /
10
#142000
00
#143000
04
b0 /
10
#144000
00
#145000
b1 /
10
#146000
00
#147000
b10 /
10
#148000
00
#149000
b11 /
10
#150000
00
#151000
b1 B
14
b100 /
10
#152000
00
#153000
b101 /
10
#154000
00
#155000
b110 /
10
#156000
00
#157000
b111 /
10
#158000
00
#159000
04
b0 /
10
#160000
00
#161000
b1 /
10
#162000
00
#163000
b10 /
10
#164000
00
#165000
b11 /
10
#166000
00
#167000
1'
0(
09
b101 F
b0 B
14
b100 /
10
#168000
00
#169000
b101 /
10
#170000
00
#171000
b110 /
10
#172000
00
#173000
b111 /
10
#174000
00
#175000
04
b0 /
10
#176000
00
#177000
b1 /
10
#178000
00
#179000
b10 /
10
#180000
00
#181000
b11 /
10
#182000
00
#183000
b1 B
14
b100 /
10
#184000
00
#185000
b101 /
10
#186000
00
#187000
b110 /
10
#188000
00
#189000
b111 /
10
#190000
00
#191000
04
b0 /
10
#192000
00
#193000
b1 /
10
#194000
00
#195000
b10 /
10
#196000
00
#197000
b11 /
10
#198000
00
#199000
0'
b10101111 H
b11100000 G
b110 F
b0 B
14
b100 /
10
#200000
00
#201000
b101 /
10
#202000
00
#203000
b110 /
10
#204000
00
#205000
b111 /
10
#206000
00
#207000
04
b0 /
10
#208000
00
#209000
b1 /
10
#210000
00
#211000
b10 /
10
#212000
00
#213000
b11 /
10
#214000
00
#215000
b1 B
14
b100 /
10
#216000
00
#217000
b101 /
10
#218000
00
#219000
b110 /
10
#220000
00
#221000
b111 /
10
#222000
00
#223000
04
b0 /
10
#224000
00
#225000
b1 /
10
#226000
00
#227000
b10 /
10
#228000
00
#229000
b11 /
10
#230000
00
#231000
1'
1(
19
b111 F
b0 B
14
b100 /
10
#232000
00
#233000
b101 /
10
#234000
00
#235000
b110 /
10
#236000
00
#237000
b111 /
10
#238000
00
#239000
04
b0 /
10
#240000
00
#241000
b1 /
10
#242000
00
#243000
b10 /
10
#244000
00
#245000
b11 /
10
#246000
00
#247000
b1 B
14
b100 /
10
#248000
00
#249000
b101 /
10
#250000
00
#251000
b110 /
10
#252000
00
#253000
b111 /
10
#254000
00
#255000
04
b0 /
10
#256000
00
#257000
b1 /
10
#258000
00
#259000
b10 /
10
#260000
00
#261000
b11 /
10
#262000
00
#263000
0'
b1011111 H
b11110000 G
b1000 F
b0 B
14
b100 /
10
#264000
00
#265000
b101 /
10
#266000
00
#267000
b110 /
10
#268000
00
#269000
b111 /
10
#270000
00
#271000
04
b0 /
10
#272000
00
#273000
b1 /
10
#274000
00
#275000
b10 /
10
#276000
00
#277000
b11 /
10
#278000
00
#279000
b1 B
14
b100 /
10
#280000
00
#281000
b101 /
10
#282000
00
#283000
b110 /
10
#284000
00
#285000
b111 /
10
#286000
00
#287000
04
b0 /
10
#288000
00
#289000
b1 /
10
#290000
00
#291000
b10 /
10
#292000
00
#293000
b11 /
10
#294000
00
#295000
1'
0(
09
b1001 F
b0 B
14
b100 /
10
#296000
00
#297000
b101 /
10
#298000
00
#299000
b110 /
10
#300000
00
#301000
b111 /
10
#302000
00
#303000
04
b0 /
10
#304000
00
#305000
b1 /
10
#306000
00
#307000
b10 /
10
#308000
00
#309000
b11 /
10
#310000
00
#311000
b1 B
14
b100 /
10
#312000
00
#313000
b101 /
10
#314000
00
#315000
b110 /
10
#316000
00
#317000
b111 /
10
#318000
00
#319000
04
b0 /
10
#320000
00
#321000
b1 /
10
#322000
00
#323000
b10 /
10
#324000
00
#325000
b11 /
10
#326000
00
#327000
0'
b10111111 H
b11111000 G
b1010 F
b0 B
14
b100 /
10
#328000
00
#329000
b101 /
10
#330000
00
#331000
b110 /
10
#332000
00
#333000
b111 /
10
#334000
00
#335000
04
b0 /
10
#336000
00
#337000
b1 /
10
#338000
00
#339000
b10 /
10
#340000
00
#341000
b11 /
10
#342000
00
#343000
b1 B
14
b100 /
10
#344000
00
#345000
b101 /
10
#346000
00
#347000
b110 /
10
#348000
00
#349000
b111 /
10
#350000
00
#351000
04
b0 /
10
#352000
00
#353000
b1 /
10
#354000
00
#355000
b10 /
10
#356000
00
#357000
b11 /
10
#358000
00
#359000
1'
1(
19
b1011 F
b0 B
14
b100 /
10
#360000
00
#361000
b101 /
10
#362000
00
#363000
b110 /
10
#364000
00
#365000
b111 /
10
#366000
00
#367000
04
b0 /
10
#368000
00
#369000
b1 /
10
#370000
00
#371000
b10 /
10
#372000
00
#373000
b11 /
10
#374000
00
#375000
b1 B
14
b100 /
10
#376000
00
#377000
b101 /
10
#378000
00
#379000
b110 /
10
#380000
00
#381000
b111 /
10
#382000
00
#383000
04
b0 /
10
#384000
00
#385000
b1 /
10
#386000
00
#387000
b10 /
10
#388000
00
#389000
b11 /
10
#390000
00
#391000
0'
b1111111 H
b11111100 G
b1100 F
b0 B
14
b100 /
10
#392000
00
#393000
b101 /
10
#394000
00
#395000
b110 /
10
#396000
00
#397000
b111 /
10
#398000
00
#399000
04
b0 /
10
#400000
00
#401000
b1 /
10
#402000
00
#403000
b10 /
10
#404000
00
#405000
b11 /
10
#406000
00
#407000
b1 B
14
b100 /
10
#408000
00
#409000
b101 /
10
#410000
00
#411000
b110 /
10
#412000
00
#413000
b111 /
10
#414000
00
#415000
04
b0 /
10
#416000
00
#417000
b1 /
10
#418000
00
#419000
b10 /
10
#420000
00
#421000
b11 /
10
#422000
00
#423000
1'
0(
09
b1101 F
b0 B
14
b100 /
10
#424000
00
#425000
b101 /
10
#426000
00
#427000
b110 /
10
#428000
00
#429000
b111 /
10
#430000
00
#431000
04
b0 /
10
#432000
00
#433000
b1 /
10
#434000
00
#435000
b10 /
10
#436000
00
#437000
b11 /
10
#438000
00
#439000
b1 B
14
b100 /
10
#440000
00
#441000
b101 /
10
#442000
00
#443000
b110 /
10
#444000
00
#445000
b111 /
10
#446000
00
#447000
04
b0 /
10
#448000
00
#449000
b1 /
10
#450000
00
#451000
b10 /
10
#452000
00
#453000
b11 /
10
#454000
00
#455000
0'
b11111111 H
b11111110 G
b1110 F
b0 B
14
b100 /
10
#456000
00
#457000
b101 /
10
#458000
00
#459000
b110 /
10
#460000
00
#461000
b111 /
10
#462000
00
#463000
04
b0 /
10
#464000
00
#465000
b1 /
10
#466000
00
#467000
b10 /
10
#468000
00
#469000
b11 /
10
#470000
00
#471000
b1 B
14
b100 /
10
#472000
00
#473000
b101 /
10
#474000
00
#475000
b110 /
10
#476000
00
#477000
b111 /
10
#478000
00
#479000
04
b0 /
10
#480000
00
#481000
b1 /
10
#482000
00
#483000
b10 /
10
#484000
00
#485000
b11 /
10
#486000
00
#487000
1'
1(
19
b1111 F
b0 B
14
b100 /
10
#488000
00
#489000
b101 /
10
#490000
00
#491000
b110 /
10
#492000
00
#493000
b111 /
10
#494000
00
#495000
04
b0 /
10
#496000
00
#497000
b1 /
10
#498000
00
#499000
b10 /
10
#500000
00
#501000
b11 /
10
#502000
00
#503000
b1 B
14
b100 /
10
#504000
00
#505000
b101 /
10
#506000
00
#507000
b110 /
10
#508000
00
#509000
b111 /
10
#510000
00
#511000
04
b0 /
10
#512000
00
#513000
b1 /
10
#514000
00
#515000
b10 /
10
#516000
00
#517000
b11 /
10
#518000
00
#519000
0'
b11111111 G
b10000 F
b0 B
14
b100 /
10
#520000
00
#521000
b101 /
10
#522000
00
#523000
b110 /
10
#524000
00
#525000
b111 /
10
#526000
00
#527000
04
b0 /
10
#528000
00
#529000
b1 /
10
#530000
00
#531000
b10 /
10
#532000
00
#533000
b11 /
10
#534000
00
#535000
b1 B
14
b100 /
10
#536000
00
#537000
b101 /
10
#538000
00
#539000
b110 /
10
#540000
00
#541000
b111 /
10
#542000
00
#543000
04
b0 /
10
#544000
00
#545000
b1 /
10
#546000
00
#547000
b10 /
10
#548000
00
#549000
b11 /
10
#550000
00
#551000
bz !
bz 5
bz ,
1)
0I
1;
b11111111 A
b0 F
b0 B
14
b100 /
10
#552000
0)
1:
00
b11111111 !
b11111111 5
1"
#553000
b101 /
10
bz !
bz 5
0"
b11111111 +
#554000
00
#555000
b110 /
10
#556000
00
#557000
b111 /
10
#558000
00
#559000
04
b0 /
10
#560000
00
#561000
b1 /
10
#562000
00
#563000
b10 /
10
#564000
00
#565000
b11 /
10
#566000
00
#567000
1*
1I
b10101010 H
0<
14
b100 /
10
#568000
b1010101 !
b1010101 5
b1010101 ,
02
00
#569000
0*
1=
b1010101 >
b101 /
1$
1.
10
#570000
0$
0.
00
#571000
b110 /
10
#572000
00
#573000
b111 /
10
#574000
00
#575000
04
b0 /
10
#576000
00
#577000
b1 /
10
#578000
00
#579000
b10 /
10
#580000
00
#581000
b11 /
10
#582000
00
#583000
b1 B
14
b100 /
10
#584000
00
#585000
b101 /
10
#586000
00
#587000
b110 /
10
#588000
00
#589000
b111 /
10
#590000
00
#591000
04
b0 /
10
#592000
00
#593000
b1 /
10
#594000
00
#595000
b10 /
10
#596000
00
#597000
b11 /
10
#598000
00
#599000
1'
b1 F
b0 B
14
b100 /
10
#600000
00
#601000
b101 /
10
#602000
00
#603000
b110 /
10
#604000
00
#605000
b111 /
10
#606000
00
#607000
04
b0 /
10
#608000
00
#609000
b1 /
10
#610000
00
#611000
b10 /
10
#612000
00
#613000
b11 /
10
#614000
00
#615000
b1 B
14
b100 /
10
#616000
00
#617000
b101 /
10
#618000
00
#619000
b110 /
10
#620000
00
#621000
b111 /
10
#622000
00
#623000
04
b0 /
10
#624000
00
#625000
b1 /
10
#626000
00
#627000
b10 /
10
#628000
00
#629000
b11 /
10
#630000
00
#631000
0'
b1010101 H
b1111111 G
b10 F
b0 B
14
b100 /
10
#632000
00
#633000
b101 /
10
#634000
00
#635000
b110 /
10
#636000
00
#637000
b111 /
10
#638000
00
#639000
04
b0 /
10
#640000
00
#641000
b1 /
10
#642000
00
#643000
b10 /
10
#644000
00
#645000
b11 /
10
#646000
00
#647000
b1 B
14
b100 /
10
#648000
00
#649000
b101 /
10
#650000
00
#651000
b110 /
10
#652000
00
#653000
b111 /
10
#654000
00
#655000
04
b0 /
10
#656000
00
#657000
b1 /
10
#658000
00
#659000
b10 /
10
#660000
00
#661000
b11 /
10
#662000
00
#663000
1'
0(
09
b11 F
b0 B
14
b100 /
10
#664000
00
#665000
b101 /
10
#666000
00
#667000
b110 /
10
#668000
00
#669000
b111 /
10
#670000
00
#671000
04
b0 /
10
#672000
00
#673000
b1 /
10
#674000
00
#675000
b10 /
10
#676000
00
#677000
b11 /
10
#678000
00
#679000
b1 B
14
b100 /
10
#680000
00
#681000
b101 /
10
#682000
00
#683000
b110 /
10
#684000
00
#685000
b111 /
10
#686000
00
#687000
04
b0 /
10
#688000
00
#689000
b1 /
10
#690000
00
#691000
b10 /
10
#692000
00
#693000
b11 /
10
#694000
00
#695000
0'
b10101011 H
b111111 G
b100 F
b0 B
14
b100 /
10
#696000
00
#697000
b101 /
10
#698000
00
#699000
b110 /
10
#700000
00
#701000
b111 /
10
#702000
00
#703000
04
b0 /
10
#704000
00
#705000
b1 /
10
#706000
00
#707000
b10 /
10
#708000
00
#709000
b11 /
10
#710000
00
#711000
b1 B
14
b100 /
10
#712000
00
#713000
b101 /
10
#714000
00
#715000
b110 /
10
#716000
00
#717000
b111 /
10
#718000
00
#719000
04
b0 /
10
#720000
00
#721000
b1 /
10
#722000
00
#723000
b10 /
10
#724000
00
#725000
b11 /
10
#726000
00
#727000
1'
1(
19
b101 F
b0 B
14
b100 /
10
#728000
00
#729000
b101 /
10
#730000
00
#731000
b110 /
10
#732000
00
#733000
b111 /
10
#734000
00
#735000
04
b0 /
10
#736000
00
#737000
b1 /
10
#738000
00
#739000
b10 /
10
#740000
00
#741000
b11 /
10
#742000
00
#743000
b1 B
14
b100 /
10
#744000
00
#745000
b101 /
10
#746000
00
#747000
b110 /
10
#748000
00
#749000
b111 /
10
#750000
00
#751000
04
b0 /
10
#752000
00
#753000
b1 /
10
#754000
00
#755000
b10 /
10
#756000
00
#757000
b11 /
10
#758000
00
#759000
0'
b1010111 H
b11111 G
b110 F
b0 B
14
b100 /
10
#760000
00
#761000
b101 /
10
#762000
00
#763000
b110 /
10
#764000
00
#765000
b111 /
10
#766000
00
#767000
04
b0 /
10
#768000
00
#769000
b1 /
10
#770000
00
#771000
b10 /
10
#772000
00
#773000
b11 /
10
#774000
00
#775000
b1 B
14
b100 /
10
#776000
00
#777000
b101 /
10
#778000
00
#779000
b110 /
10
#780000
00
#781000
b111 /
10
#782000
00
#783000
04
b0 /
10
#784000
00
#785000
b1 /
10
#786000
00
#787000
b10 /
10
#788000
00
#789000
b11 /
10
#790000
00
#791000
1'
0(
09
b111 F
b0 B
14
b100 /
10
#792000
00
#793000
b101 /
10
#794000
00
#795000
b110 /
10
#796000
00
#797000
b111 /
10
#798000
00
#799000
04
b0 /
10
#800000
00
#801000
b1 /
10
#802000
00
#803000
b10 /
10
#804000
00
#805000
b11 /
10
#806000
00
#807000
b1 B
14
b100 /
10
#808000
00
#809000
b101 /
10
#810000
00
#811000
b110 /
10
#812000
00
#813000
b111 /
10
#814000
00
#815000
04
b0 /
10
#816000
00
#817000
b1 /
10
#818000
00
#819000
b10 /
10
#820000
00
#821000
b11 /
10
#822000
00
#823000
0'
b10101111 H
b1111 G
b1000 F
b0 B
14
b100 /
10
#824000
00
#825000
b101 /
10
#826000
00
#827000
b110 /
10
#828000
00
#829000
b111 /
10
#830000
00
#831000
04
b0 /
10
#832000
00
#833000
b1 /
10
#834000
00
#835000
b10 /
10
#836000
00
#837000
b11 /
10
#838000
00
#839000
b1 B
14
b100 /
10
#840000
00
#841000
b101 /
10
#842000
00
#843000
b110 /
10
#844000
00
#845000
b111 /
10
#846000
00
#847000
04
b0 /
10
#848000
00
#849000
b1 /
10
#850000
00
#851000
b10 /
10
#852000
00
#853000
b11 /
10
#854000
00
#855000
1'
1(
19
b1001 F
b0 B
14
b100 /
10
#856000
00
#857000
b101 /
10
#858000
00
#859000
b110 /
10
#860000
00
#861000
b111 /
10
#862000
00
#863000
04
b0 /
10
#864000
00
#865000
b1 /
10
#866000
00
#867000
b10 /
10
#868000
00
#869000
b11 /
10
#870000
00
#871000
b1 B
14
b100 /
10
#872000
00
#873000
b101 /
10
#874000
00
#875000
b110 /
10
#876000
00
#877000
b111 /
10
#878000
00
#879000
04
b0 /
10
#880000
00
#881000
b1 /
10
#882000
00
#883000
b10 /
10
#884000
00
#885000
b11 /
10
#886000
00
#887000
0'
b1011111 H
b111 G
b1010 F
b0 B
14
b100 /
10
#888000
00
#889000
b101 /
10
#890000
00
#891000
b110 /
10
#892000
00
#893000
b111 /
10
#894000
00
#895000
04
b0 /
10
#896000
00
#897000
b1 /
10
#898000
00
#899000
b10 /
10
#900000
00
#901000
b11 /
10
#902000
00
#903000
b1 B
14
b100 /
10
#904000
00
#905000
b101 /
10
#906000
00
#907000
b110 /
10
#908000
00
#909000
b111 /
10
#910000
00
#911000
04
b0 /
10
#912000
00
#913000
b1 /
10
#914000
00
#915000
b10 /
10
#916000
00
#917000
b11 /
10
#918000
00
#919000
1'
0(
09
b1011 F
b0 B
14
b100 /
10
#920000
00
#921000
b101 /
10
#922000
00
#923000
b110 /
10
#924000
00
#925000
b111 /
10
#926000
00
#927000
04
b0 /
10
#928000
00
#929000
b1 /
10
#930000
00
#931000
b10 /
10
#932000
00
#933000
b11 /
10
#934000
00
#935000
b1 B
14
b100 /
10
#936000
00
#937000
b101 /
10
#938000
00
#939000
b110 /
10
#940000
00
#941000
b111 /
10
#942000
00
#943000
04
b0 /
10
#944000
00
#945000
b1 /
10
#946000
00
#947000
b10 /
10
#948000
00
#949000
b11 /
10
#950000
00
#951000
0'
b10111111 H
b11 G
b1100 F
b0 B
14
b100 /
10
#952000
00
#953000
b101 /
10
#954000
00
#955000
b110 /
10
#956000
00
#957000
b111 /
10
#958000
00
#959000
04
b0 /
10
#960000
00
#961000
b1 /
10
#962000
00
#963000
b10 /
10
#964000
00
#965000
b11 /
10
#966000
00
#967000
b1 B
14
b100 /
10
#968000
00
#969000
b101 /
10
#970000
00
#971000
b110 /
10
#972000
00
#973000
b111 /
10
#974000
00
#975000
04
b0 /
10
#976000
00
#977000
b1 /
10
#978000
00
#979000
b10 /
10
#980000
00
#981000
b11 /
10
#982000
00
#983000
1'
1(
19
b1101 F
b0 B
14
b100 /
10
#984000
00
#985000
b101 /
10
#986000
00
#987000
b110 /
10
#988000
00
#989000
b111 /
10
#990000
00
#991000
04
b0 /
10
#992000
00
#993000
b1 /
10
#994000
00
#995000
b10 /
10
#996000
00
#997000
b11 /
10
#998000
00
#999000
b1 B
14
b100 /
10
#1000000
00
#1001000
b101 /
10
#1002000
00
#1003000
b110 /
10
#1004000
00
#1005000
b111 /
10
#1006000
00
#1007000
04
b0 /
10
#1008000
00
#1009000
b1 /
10
#1010000
00
#1011000
b10 /
10
#1012000
00
#1013000
b11 /
10
#1014000
00
#1015000
0'
b1111111 H
b1 G
b1110 F
b0 B
14
b100 /
10
#1016000
00
#1017000
b101 /
10
#1018000
00
#1019000
b110 /
10
#1020000
00
#1021000
b111 /
10
#1022000
00
#1023000
04
b0 /
10
#1024000
00
#1025000
b1 /
10
#1026000
00
#1027000
b10 /
10
#1028000
00
#1029000
b11 /
10
#1030000
00
#1031000
b1 B
14
b100 /
10
#1032000
00
#1033000
b101 /
10
#1034000
00
#1035000
b110 /
10
#1036000
00
#1037000
b111 /
10
#1038000
00
#1039000
04
b0 /
10
#1040000
00
#1041000
b1 /
10
#1042000
00
#1043000
b10 /
10
#1044000
00
#1045000
b11 /
10
#1046000
00
#1047000
1'
0(
09
b1111 F
b0 B
14
b100 /
10
#1048000
00
#1049000
b101 /
10
#1050000
00
#1051000
b110 /
10
#1052000
00
#1053000
b111 /
10
#1054000
00
#1055000
04
b0 /
10
#1056000
00
#1057000
b1 /
10
#1058000
00
#1059000
b10 /
10
#1060000
00
#1061000
b11 /
10
#1062000
00
#1063000
b1 B
14
b100 /
10
#1064000
00
#1065000
b101 /
10
#1066000
00
#1067000
b110 /
10
#1068000
00
#1069000
b111 /
10
#1070000
00
#1071000
04
b0 /
10
#1072000
00
#1073000
b1 /
10
#1074000
00
#1075000
b10 /
10
#1076000
00
#1077000
b11 /
10
#1078000
00
#1079000
0'
b11111111 H
b0 G
b10000 F
b0 B
14
b100 /
10
#1080000
00
#1081000
b101 /
10
#1082000
00
#1083000
b110 /
10
#1084000
00
#1085000
b111 /
10
#1086000
00
#1087000
04
b0 /
10
#1088000
00
#1089000
b1 /
10
#1090000
00
#1091000
b10 /
10
#1092000
00
#1093000
b11 /
10
#1094000
00
#1095000
b1 B
14
b100 /
10
#1096000
00
#1097000
b101 /
10
#1098000
00
#1099000
b110 /
10
#1100000
00
#1101000
b111 /
10
#1102000
00
#1103000
04
b0 /
10
#1104000
00
#1105000
b1 /
10
#1106000
00
#1107000
b10 /
10
#1108000
00
#1109000
b11 /
10
#1110000
00
#1111000
bz !
bz 5
bz ,
1)
1(
0I
0;
b0 A
19
b0 F
b0 B
14
b100 /
10
#1112000
0)
0:
00
b0 !
b0 5
1"
#1113000
b101 /
12
10
bz !
bz 5
0"
b0 +
#1114000
00
#1115000
b110 /
10
#1116000
00
#1117000
b111 /
10
#1118000
00
#1119000
04
b0 /
10
#1120000
00
#1121000
b1 /
10
#1122000
00
#1123000
b10 /
10
#1124000
00
#1125000
b11 /
10
#1126000
00
#1127000
1*
1I
b1010101 H
1<
14
b100 /
10
#1128000
00
#1129000
b101 /
10
#1130000
00
#1131000
b110 /
10
#1132000
00
#1133000
b111 /
10
#1134000
00
#1135000
04
b0 /
10
#1136000
00
#1137000
b1 /
10
#1138000
00
#1139000
b10 /
10
#1140000
00
#1141000
b11 /
10
#1142000
00
#1143000
b1 B
14
b100 /
10
#1144000
00
#1145000
b101 /
10
#1146000
00
#1147000
b110 /
10
#1148000
00
#1149000
b111 /
10
#1150000
00
#1151000
04
b0 /
10
#1152000
00
#1153000
b1 /
10
#1154000
00
#1155000
b10 /
10
#1156000
00
#1157000
b11 /
10
#1158000
00
#1159000
1'
0(
09
b1 F
b0 B
14
b100 /
10
#1160000
00
#1161000
b101 /
10
#1162000
00
#1163000
b110 /
10
#1164000
00
#1165000
b111 /
10
#1166000
00
#1167000
04
b0 /
10
#1168000
00
#1169000
b1 /
10
#1170000
00
#1171000
b10 /
10
#1172000
00
#1173000
b11 /
10
#1174000
00
#1175000
b1 B
14
b100 /
10
#1176000
00
#1177000
b101 /
10
#1178000
00
#1179000
b110 /
10
#1180000
00
#1181000
b111 /
10
#1182000
00
#1183000
04
b0 /
10
#1184000
00
#1185000
b1 /
10
#1186000
00
#1187000
b10 /
10
#1188000
00
#1189000
b11 /
10
#1190000
00
#1191000
0'
b10101011 H
b10000000 G
b10 F
b0 B
14
b100 /
10
#1192000
00
#1193000
b101 /
10
#1194000
00
#1195000
b110 /
10
#1196000
00
#1197000
b111 /
10
#1198000
00
#1199000
04
b0 /
10
#1200000
00
#1201000
b1 /
10
#1202000
00
#1203000
b10 /
10
#1204000
00
#1205000
b11 /
10
#1206000
00
#1207000
b1 B
14
b100 /
10
#1208000
00
#1209000
b101 /
10
#1210000
00
#1211000
b110 /
10
#1212000
00
#1213000
b111 /
10
#1214000
00
#1215000
04
b0 /
10
#1216000
00
#1217000
b1 /
10
#1218000
00
#1219000
b10 /
10
#1220000
00
#1221000
b11 /
10
#1222000
00
#1223000
1'
1(
19
b11 F
b0 B
14
b100 /
10
#1224000
00
#1225000
b101 /
10
#1226000
00
#1227000
b110 /
10
#1228000
00
#1229000
b111 /
10
#1230000
00
#1231000
04
b0 /
10
#1232000
00
#1233000
b1 /
10
#1234000
00
#1235000
b10 /
10
#1236000
00
#1237000
b11 /
10
#1238000
00
#1239000
b1 B
14
b100 /
10
#1240000
00
#1241000
b101 /
10
#1242000
00
#1243000
b110 /
10
#1244000
00
#1245000
b111 /
10
#1246000
00
#1247000
04
b0 /
10
#1248000
00
#1249000
b1 /
10
#1250000
00
#1251000
b10 /
10
#1252000
00
#1253000
b11 /
10
#1254000
00
#1255000
0'
b1010111 H
b11000000 G
b100 F
b0 B
14
b100 /
10
#1256000
00
#1257000
b101 /
10
#1258000
00
#1259000
b110 /
10
#1260000
00
#1261000
b111 /
10
#1262000
00
#1263000
04
b0 /
10
#1264000
00
#1265000
b1 /
10
#1266000
00
#1267000
b10 /
10
#1268000
00
#1269000
b11 /
10
#1270000
00
#1271000
b1 B
14
b100 /
10
#1272000
00
#1273000
b101 /
10
#1274000
00
#1275000
b110 /
10
#1276000
00
#1277000
b111 /
10
#1278000
00
#1279000
04
b0 /
10
#1280000
00
#1281000
b1 /
10
#1282000
00
#1283000
b10 /
10
#1284000
00
#1285000
b11 /
10
#1286000
00
#1287000
1'
0(
09
b101 F
b0 B
14
b100 /
10
#1288000
00
#1289000
b101 /
10
#1290000
00
#1291000
b110 /
10
#1292000
00
#1293000
b111 /
10
#1294000
00
#1295000
04
b0 /
10
#1296000
00
#1297000
b1 /
10
#1298000
00
#1299000
b10 /
10
#1300000
00
#1301000
b11 /
10
#1302000
00
#1303000
b1 B
14
b100 /
10
#1304000
00
#1305000
b101 /
10
#1306000
00
#1307000
b110 /
10
#1308000
00
#1309000
b111 /
10
#1310000
00
#1311000
04
b0 /
10
#1312000
00
#1313000
b1 /
10
#1314000
00
#1315000
b10 /
10
#1316000
00
#1317000
b11 /
10
#1318000
00
#1319000
0'
b10101111 H
b11100000 G
b110 F
b0 B
14
b100 /
10
#1320000
00
#1321000
b101 /
10
#1322000
00
#1323000
b110 /
10
#1324000
00
#1325000
b111 /
10
#1326000
00
#1327000
04
b0 /
10
#1328000
00
#1329000
b1 /
10
#1330000
00
#1331000
b10 /
10
#1332000
00
#1333000
b11 /
10
#1334000
00
#1335000
b1 B
14
b100 /
10
#1336000
00
#1337000
b101 /
10
#1338000
00
#1339000
b110 /
10
#1340000
00
#1341000
b111 /
10
#1342000
00
#1343000
04
b0 /
10
#1344000
00
#1345000
b1 /
10
#1346000
00
#1347000
b10 /
10
#1348000
00
#1349000
b11 /
10
#1350000
00
#1351000
1'
1(
19
b111 F
b0 B
14
b100 /
10
#1352000
00
#1353000
b101 /
10
#1354000
00
#1355000
b110 /
10
#1356000
00
#1357000
b111 /
10
#1358000
00
#1359000
04
b0 /
10
#1360000
00
#1361000
b1 /
10
#1362000
00
#1363000
b10 /
10
#1364000
00
#1365000
b11 /
10
#1366000
00
#1367000
b1 B
14
b100 /
10
#1368000
00
